{
	"author": {
		"email": "q@qsoftwareinnovations.com",
		"name": "TheQ",
		"url": "www.qsoftwareinnovations.com"
	},
	"bugs": "https://gitlab.com/QSI_Shared_Code/SharedQControls/https://gitlab.com/QSI_Shared_Code/SharedQControls/ColumnSortMulticolumnListbox/issues",
	"dependencies": {
		"@mgi/library-core": "^0.4.2"
	},
	"description": "This QControl adds sorting by column to a Multicolumn Listbox.  Inherit from the Sort class to specialize the sorting algorithm.  Requires the QControl Toolkit from NI Tools Network (http://bit.ly/QControlNITools).",
	"keywords": [
		"QControl",
		"UI",
		"sortable",
		"Multicolumn Listbox"
	],
	"license": "BSD-3",
	"lvversion": ">=18",
	"name": "@qsi/columnsortmulticolumnlistbox-qcontrol",
	"os": [
		"Windows 3.1",
		"Windows 95/NT",
		"Windows x64"
	],
	"private": false,
	"repository": "https://gitlab.com/QSI_Shared_Code/SharedQControls/ColumnSortMulticolumnListbox.git",
	"version": "1.0.0"
}